simulation/qsim/SRA.msim.vcd
$comment
	File created using the following command:
		vcd file SRA.msim.vcd -direction
$end
$date
	Tue May 23 22:48:56 2023
$end
$version
	ModelSim Version 10.1d
$end
$timescale
	1ps
$end
$scope module TEST_COMP_vlg_vec_tst $end
$var reg 8 ! A [7:0] $end
$var reg 8 " B [7:0] $end
$var reg 1 # Sel $end
$var wire 1 $ Y [7] $end
$var wire 1 % Y [6] $end
$var wire 1 & Y [5] $end
$var wire 1 ' Y [4] $end
$var wire 1 ( Y [3] $end
$var wire 1 ) Y [2] $end
$var wire 1 * Y [1] $end
$var wire 1 + Y [0] $end
$var wire 1 , sampler $end
$scope module i1 $end
$var wire 1 - gnd $end
$var wire 1 . vcc $end
$var wire 1 / unknown $end
$var tri1 1 0 devclrn $end
$var tri1 1 1 devpor $end
$var tri1 1 2 devoe $end
$var wire 1 3 Sel~combout $end
$var wire 1 4 inst|inst[7]~0_combout $end
$var wire 1 5 inst|inst[6]~1_combout $end
$var wire 1 6 inst|inst[5]~2_combout $end
$var wire 1 7 inst|inst[4]~3_combout $end
$var wire 1 8 inst|inst[3]~4_combout $end
$var wire 1 9 inst|inst[2]~5_combout $end
$var wire 1 : inst|inst[1]~6_combout $end
$var wire 1 ; inst|inst[0]~7_combout $end
$var wire 1 < B~combout [7] $end
$var wire 1 = B~combout [6] $end
$var wire 1 > B~combout [5] $end
$var wire 1 ? B~combout [4] $end
$var wire 1 @ B~combout [3] $end
$var wire 1 A B~combout [2] $end
$var wire 1 B B~combout [1] $end
$var wire 1 C B~combout [0] $end
$var wire 1 D A~combout [7] $end
$var wire 1 E A~combout [6] $end
$var wire 1 F A~combout [5] $end
$var wire 1 G A~combout [4] $end
$var wire 1 H A~combout [3] $end
$var wire 1 I A~combout [2] $end
$var wire 1 J A~combout [1] $end
$var wire 1 K A~combout [0] $end
$upscope $end
$upscope $end
$enddefinitions $end
#0
$dumpvars
b10110101 !
b100010 "
0#
1+
0*
1)
0(
1'
1&
0%
1$
x,
0-
1.
x/
10
11
12
03
14
05
16
17
08
19
0:
1;
0C
1B
0A
0@
0?
1>
0=
0<
1K
0J
1I
0H
1G
1F
0E
1D
$end
#10000
b110101 !
b1110101 !
b1010101 !
b1010001 !
b1010011 !
b1010010 !
b100110 "
b100100 "
b100101 "
1C
0B
1A
0K
1J
0I
0F
1E
0D
0,
0;
1:
09
06
15
04
0+
1*
0)
0&
1%
0$
#20000
b1000010 !
b10100101 "
b11100101 "
b11110101 "
b11000010 !
b11100010 !
b11100110 !
b11110100 "
0C
1?
1=
1<
1I
0G
1F
1D
1,
07
14
19
16
0'
1$
1)
1&
#30000
b11110110 !
b1110100 "
b1100100 "
b11110010 !
0?
0<
0I
1G
0,
17
09
1'
0)
#40000
b1101100 "
b10110010 !
b10110011 !
b101100 "
b101101 "
b10110111 !
1K
1I
0E
1C
1@
0=
1,
1;
19
05
1+
1)
0%
#50000
b10111111 !
b101111 "
b10011111 !
b10001111 !
b100111 "
b11001111 !
b100110 "
b11001011 !
0C
1B
0@
0I
1H
0G
0F
1E
0,
18
09
07
06
15
1(
0)
0'
0&
1%
#60000
b1001011 !
b10100110 "
b11100110 "
b1000011 !
b1100011 !
b11101110 "
b11101111 "
b1100111 !
1C
1@
1=
1<
1I
0H
1F
0D
1,
08
04
19
16
0(
0$
1)
1&
#70000
b11001111 "
b11011111 "
b1100110 !
b100110 !
b1011111 "
b11111 "
b101110 !
b10111 "
b101010 !
0K
0I
1H
0E
0@
1?
0>
0=
0<
0,
0;
09
18
05
0+
0)
1(
0%
#80000
b101000 !
b111000 !
b11000 !
b11001 !
1K
0J
1G
0F
1,
1;
0:
17
06
1+
0*
1'
0&
#90000
b10011 "
b10001 "
b10011001 !
b10000 "
b0 "
b11011001 !
b1000000 "
b11010001 !
b11010101 !
1I
0H
1E
1D
0C
0B
0A
0?
1=
0,
19
08
15
14
1)
0(
1%
1$
#100000
b1100000 "
b11000101 !
b11100101 !
b1100001 "
b10100101 !
b10101101 !
1H
0G
1F
0E
1C
1>
1,
18
07
16
05
1(
0'
1&
0%
#110000
b1100011 "
b101101 !
b100011 "
b101001 !
b1101001 !
b1100001 !
0I
0H
1E
0D
1B
0=
0,
09
08
15
04
0)
0(
1%
0$
#120000
b101011 "
b1100000 !
b111011 "
b111010 "
b1111010 "
b1100100 !
0K
1I
0C
1@
1?
1=
1,
0;
19
0+
1)
#130000
b1100110 !
b1011010 "
b1110110 !
b1010110 !
b1011000 "
b11010110 !
b11011110 !
b1010000 "
b1010001 "
b10001 "
1C
0B
0@
0>
0=
1J
1H
1G
0F
1D
0,
1:
18
06
17
14
1*
1(
0&
1'
1$
#140000
b10010001 "
b11011111 !
b10000001 "
b10100001 "
b11001111 !
b10100011 "
b1001111 !
b1000111 !
b10101011 "
b10101010 "
1K
0H
0G
0D
0C
1B
1@
0?
1>
1<
1,
1;
08
07
04
1+
0(
0'
0$
#150000
b10101110 "
b1000101 !
b11101110 "
b1000100 !
b11111110 "
b11111100 "
b1001100 !
0K
0J
1H
0B
1A
1?
1=
0,
0;
0:
18
0+
0*
1(
#160000
b1100 !
b1000 !
b101000 !
b11011100 "
b11011101 "
1C
0>
0I
1F
0E
1,
16
09
05
1&
0)
0%
#170000
b1011101 "
b10101000 !
b1010101 "
b10101010 !
b10101011 !
1K
1J
1D
0@
0<
0,
1;
1:
14
1+
1*
1$
#180000
b1010001 "
b10001 "
b10011 "
b11101011 !
b11001011 !
b110011 "
b110010 "
b10110010 "
b11001010 !
0K
0F
1E
0C
1B
0A
1>
0=
1<
1,
0;
06
15
0+
0&
1%
#190000
b10100010 "
b11000010 !
b10101010 "
b11000000 !
b10101110 "
b10101100 "
b10000000 !
b10100000 !
b10100001 !
1K
0J
0H
1F
0E
0B
1A
1@
0?
0,
1;
0:
08
16
05
1+
0*
0(
1&
0%
#200000
b10100101 !
b100101 !
b10101101 "
b10111101 "
b101101 !
b10111111 "
b1101 !
1C
1B
1?
1I
1H
0F
0D
1,
19
18
06
04
1)
1(
0&
0$
#210000
b11101 !
b11111111 "
b1111111 "
b11111 !
b11110 !
b11010 !
b10011010 !
b1101111 "
b10010010 !
0?
1=
0<
0K
1J
0I
0H
1G
1D
0,
17
14
0;
1:
09
08
1'
1$
0+
1*
0)
0(
#220000
b1100111 "
b100111 "
b10100111 "
b10010000 !
b10010001 !
b10001 !
b11001 !
1K
0J
1H
0D
0@
0=
1<
1,
1;
0:
18
04
1+
0*
1(
0$
#230000
b1011001 !
b10100101 "
b1111001 !
b1101001 !
b1101101 !
b10110101 "
b110101 "
0B
1?
0<
1I
0G
1F
1E
0,
07
19
16
15
0'
1)
1&
1%
#240000
b110001 "
b111001 "
b1111001 "
b1101111 !
b1101110 !
b11101110 !
b1111011 "
b11001110 !
b1101011 "
b11101011 "
0K
1J
0F
1D
1B
0A
1@
0?
1=
1<
1,
0;
1:
06
14
0+
1*
0&
1$
#250000
b11101010 "
b11011110 !
b11011010 !
b11100010 "
b10100010 "
b11011011 !
b1011011 !
b1111011 !
b10110010 "
1K
0I
1G
1F
0D
0C
0@
1?
0=
0,
1;
09
17
16
04
1+
0)
1'
1&
0$
#260000
b1110011 !
b10110000 "
b110000 "
b110001 "
b1100011 !
b1100111 !
b111001 "
b1111001 "
b11100111 !
b11000111 !
1C
0B
1@
1=
0<
1I
0H
0G
0F
1D
1,
08
14
19
07
06
0(
1$
1)
0'
0&
#270000
b1011001 "
b10000111 !
b10000101 !
b1011000 "
b10000001 !
b1010000 "
b10000 "
0J
0I
0E
0C
0@
0>
0=
0,
0:
09
05
0*
0)
0%
#280000
b0 "
b10001001 !
b10101001 !
b100000 "
b100001 "
b10101101 !
b1100001 "
1I
1H
1F
1C
0?
1>
1=
1,
19
18
16
1)
1(
1&
#290000
b1100101 "
b1100111 "
b11100111 "
b101101 !
b101111 !
b11101111 "
b11111111 "
b100111 !
b111 !
b11011111 "
1J
0H
0F
0D
1B
1A
1@
1?
0>
1<
0,
1:
08
06
04
1*
0(
0&
0$
#300000
b110 !
b1000110 !
b11011011 "
b1011011 "
b1010011 "
b1110011 "
0A
0@
1>
0<
0K
1E
1,
0;
15
0+
1%
#310000
b11000110 !
b11000100 !
b10000100 !
b1110111 "
b11110111 "
b11111111 "
1A
1@
1<
0J
0E
1D
0,
14
0:
05
1$
0*
0%
#320000
b10010100 !
b11111110 "
b10111110 "
b10111100 "
b10101100 "
b10011100 !
b10011101 !
b10001100 "
b10011111 !
b10001000 "
b1000 "
b0 "
0C
0B
0A
0@
0?
0>
0=
0<
1K
1J
1H
1G
1,
1;
1:
18
17
1+
1*
1(
1'
#330000
b10111111 !
b111111 !
b1111111 !
b1101111 !
b10000 "
b1100111 !
b10100 "
1A
1?
0H
0G
1F
1E
0D
0,
07
08
16
15
04
0'
0(
1&
1%
0$
#340000
b10101 "
b10111 "
b1100110 !
b110111 "
b1000110 !
b11000110 !
b10000110 !
b10010110 !
b110011 "
0K
1G
0F
0E
1D
1C
1B
0A
1>
1,
0;
17
06
05
14
0+
1'
0&
0%
1$
#350000
b1110011 "
b10011110 !
b1110001 "
b10011111 !
b10111111 !
b111111 !
b1111111 !
b1101111 !
1K
1H
0G
1F
1E
0D
0B
1=
0,
1;
18
07
16
15
04
1+
1(
0'
1&
1%
0$
#360000
b11110001 "
b11100001 "
b11000001 "
b11000101 "
b1101110 !
b11101110 !
b11111110 !
0K
1G
1D
1A
0?
0>
1<
1,
0;
17
14
0+
1'
1$
#370000
b11111010 !
b11001101 "
b11001100 "
b10001100 "
b11011010 !
b1100 "
b1011010 !
b1001010 !
0C
1@
0=
0<
0I
0G
0F
0D
0,
04
09
07
06
0$
0)
0'
0&
#380000
b1010 !
b101100 "
b1110 !
b100100 "
b100101 "
b1100101 "
b101110 !
b10101110 !
1C
0@
1>
1=
1I
1F
0E
1D
1,
16
05
19
14
1&
0%
1)
1$
#390000
b10101100 !
b1100111 "
b1110111 "
b10101101 !
b10111101 !
b1010111 "
b10111001 !
b10111 "
b10011001 !
b11001 !
1B
1?
0>
0=
1K
0J
0I
1G
0F
0D
0,
0:
17
06
1;
09
04
0*
1'
0&
1+
0)
0$
#400000
b11111 "
b1111 "
b1001 !
b101111 "
b1101 !
b1101111 "
b101101 !
1I
0G
1F
1@
0?
1>
1=
1,
19
07
16
1)
0'
1&
#410000
b100101 !
b1101011 "
b1101010 "
b100111 !
b1001010 "
b100011 !
b11 !
0C
0A
0>
1J
0I
0H
0F
0,
09
06
1:
08
0)
0&
1*
0(
#420000
b11001010 "
b1000011 !
b11001000 "
b1000010 !
b11000010 !
b11000000 "
b11010000 "
b10010000 "
b10010001 "
b11100010 !
0K
1F
1E
1D
1C
0B
0@
1?
0=
1<
1,
0;
16
15
14
0+
1&
1%
1$
#430000
b11100000 !
b10110001 "
b11100100 !
b110001 "
b10100100 !
b110011 "
b10100101 !
b1110011 "
b1110010 "
0C
1B
1>
1=
0<
1K
0J
1I
0E
0,
1;
0:
05
19
1+
0*
0%
1)
#440000
b10110101 !
b10111101 !
b1110110 "
b1010110 "
b11010110 "
b10111100 !
b11010111 "
1C
1A
0>
1<
0K
1H
1G
1,
0;
18
17
0+
1(
1'
#450000
b11011111 "
b11001111 "
b10011100 !
b11011100 !
b10001111 "
b10101111 "
b11011101 !
1K
0F
1E
1@
0?
1>
0=
0,
1;
06
15
1+
0&
1%
#460000
b1011101 !
b1011001 !
b1001001 !
b1000001 !
b101111 "
b1111 "
0>
0<
0I
0H
0G
0D
1,
04
09
08
07
0$
0)
0(
0'
#470000
b1101 "
b101 "
b10101 "
b1100001 !
b1010101 "
b11100001 !
b11100101 !
b11110101 !
b11111101 !
b11010101 "
b11110101 "
1I
1H
1G
1F
1D
0B
0@
1?
1>
1=
1<
0,
19
18
17
16
14
1)
1(
1'
1&
1$
#480000
b11110001 "
b10111101 !
b11111001 "
b11101001 "
b111101 !
b111001 !
b110001 !
b1101001 "
b1001001 "
0I
0H
0E
0D
0A
1@
0?
0>
0<
1,
09
08
05
04
0)
0(
0%
0$
#490000
b110011 !
b110010 !
b1001 "
b1110010 !
b11001 "
b11110010 !
b11111010 !
b111001 "
1?
1>
0=
0K
1J
1H
1E
1D
0,
15
0;
1:
18
14
1%
0+
1*
1(
1$
#500000
1#
b11011010 !
b11001010 !
b11001110 !
b11001111 !
b1111001 "
b10001111 !
13
1=
1K
1I
0G
0F
0E
1,
1;
0:
04
1+
0*
0$
#510000
b1101001 "
b1111 !
b1001001 "
b101111 !
b111111 !
b1111111 !
1G
1F
1E
0D
0?
0>
0,
07
06
0'
0&
#520000
b1001011 "
b1110111 !
b1110011 !
b1101011 "
b1100011 !
b100011 !
0I
0H
0G
0E
1B
1>
1,
1:
16
1*
1&
#530000
b11101011 "
b10100011 !
b10000011 !
b11101001 "
b10001011 !
b11001001 "
b10011011 !
b11011011 !
1H
1G
0F
1E
1D
0B
0>
1<
0,
06
14
0:
0&
1$
0*
#540000
b11001000 "
b11001100 "
b11011010 !
b10001100 "
b10011100 "
b1011010 !
b10011110 "
b1001010 !
b1010 !
0K
0G
0E
0D
0C
1B
1A
1?
0=
1,
0;
17
05
1:
19
0+
1'
0%
1*
1)
#550000
b10010110 "
b1110 !
b101110 !
b100110 !
b10010010 "
b10000010 "
b10100110 !
b10110110 !
1I
0H
1G
1F
1D
0A
0@
0?
0,
09
08
07
0)
0(
0'
#560000
b10100010 "
b10100011 "
b10110111 !
b10100001 "
b11110111 !
b10101001 "
b11111111 !
b1111111 !
b1101111 !
1K
1H
0G
1E
0D
1C
0B
1@
1>
1,
1;
18
0:
16
1+
1(
0*
1&
#570000
b1101101 !
b101001 "
b111001 "
b11001 "
b1101100 !
b11011 "
b101100 !
b10011 "
b111100 !
1B
0@
1?
0>
0<
0K
0J
1G
0E
0,
1:
08
17
06
04
1*
0(
1'
0&
0$
#580000
b111000 !
b11000 !
b10010 "
b10011000 !
b10011010 !
b10 "
b11011010 !
b11001010 !
0C
0?
1J
0I
0G
0F
1E
1D
1,
0;
07
0+
0'
#590000
b110 "
b11000010 !
b10000110 "
b11000011 !
b10001110 "
b11000111 !
b11100111 !
b10001111 "
b1100111 !
b1100101 !
b10011111 "
b100101 !
1K
0J
1I
0H
1F
0E
0D
1C
1A
1@
1?
1<
0,
1;
19
18
14
17
1+
1)
1(
1$
1'
#600000
b11011111 "
b11111111 "
b11111101 "
b110101 !
b11111001 "
b111101 !
b111100 !
b111000 !
b11111000 "
b10111000 !
b10111010 !
0K
1J
0I
1H
1G
1D
0C
0B
0A
1>
1=
1,
0;
0:
09
16
15
0+
0*
0)
1&
1%
#610000
b1111000 "
b10011010 !
b11011010 !
b111000 "
b111010 "
b11001010 !
b11000010 !
b11000110 !
1I
0H
0G
0F
1E
1B
0=
0<
0,
05
1:
04
0%
1*
0$
#620000
b110010 "
b10010 "
b10110 "
b11000111 !
b10010110 "
b11100111 !
b10010100 "
b11110111 !
b11111111 !
1K
1H
1G
1F
0B
1A
0@
0>
1<
1,
08
06
0:
19
14
0(
0&
0*
1)
1$
#630000
b10000100 "
b11111101 !
b10111101 !
b11000100 "
b11001100 "
b11001000 "
b10111100 !
b1001000 "
b10011100 !
b1001010 "
b10010100 !
0K
0J
0H
0F
0E
1B
0A
1@
0?
1=
0<
0,
1:
18
15
09
07
04
1*
1(
1%
0)
0'
0$
#640000
b10010000 !
b1101010 "
b1111010 "
b10010010 !
b1110010 "
b1110110 "
b11110110 "
b10110010 !
b11110100 "
b10111010 !
0B
1A
0@
1?
1>
1<
1J
0I
1H
1F
1,
0:
19
08
17
16
14
0*
1)
0(
1'
1&
1$
#650000
b10101010 !
b11101010 !
b11101011 !
b11100100 "
b11101100 "
b11101110 "
1B
1@
0?
1K
0G
1E
0,
1:
18
07
1*
1(
0'
#660000
b11101111 "
b10101111 "
b11101001 !
b10101011 "
b101011 "
b11001001 !
b11011001 !
b10011001 !
b10011000 !
b111011 "
b110011 "
0K
0J
1G
0F
0E
1C
0A
0@
1?
0=
0<
1,
1;
17
05
09
08
04
1+
1'
0%
0)
0(
0$
#670000
b10011 "
b10001 "
b10011010 !
b10101 "
b11011010 !
b101 "
b1101 "
1J
1E
0B
1A
1@
0?
0>
0,
0:
19
18
07
06
0*
1)
1(
0'
0&
#680000
b11011110 !
b10001101 "
b10101101 "
b11011100 !
1>
1<
0J
1I
1,
16
14
1&
1$
#690000
b11101101 "
b11101111 "
b11111111 "
b11110111 "
b1110111 "
1B
0@
1?
1=
0<
0,
1:
08
17
15
04
1*
0(
1'
1%
0$
#700000
b1011100 !
b1010100 !
b1010000 !
b1010111 "
b10111 "
b10101 "
0B
0>
0=
0I
0H
0D
1,
0:
06
05
0*
0&
0%
#710000
b1000000 !
b1000001 !
b1 !
b11 !
b101 "
b10000101 "
b10000011 !
b10000111 !
b11000101 "
0?
1=
1<
1K
1J
1I
0G
0E
1D
0,
07
15
14
0'
1%
1$
#720000
b11000100 "
b11100100 "
b11100110 "
b10000110 !
b11000110 !
b11000100 !
b11110110 "
b11000000 !
b10110110 "
0K
0J
0I
1E
0C
1B
1?
1>
0=
1,
0;
1:
05
17
16
0+
1*
0%
1'
1&
#730000
b11100000 !
b11101000 !
b110110 "
b1101000 !
b10110 "
b1101001 !
b101001 !
b101101 !
b1010110 "
0>
1=
0<
1K
1I
1H
1F
0E
0D
0,
06
15
04
0&
1%
0$
#740000
b1010010 "
b1011010 "
b1011011 "
b1011001 "
b1001001 "
b1101 !
b101 !
b11001001 "
b100 !
b0 !
0K
0I
0H
0F
1C
0B
0A
1@
0?
1<
1,
1;
09
18
0:
07
14
1+
0)
1(
0*
0'
1$
#750000
b10000 !
b10010 !
b10010010 !
b11010010 !
b10001001 "
b10000001 "
b10000011 "
b11011010 !
1B
0@
0=
1J
1H
1G
1E
1D
0,
1:
08
05
1*
0(
0%
#760000
b10000010 "
b10010010 "
b11111010 !
b10010 "
b1111010 !
b111010 !
b10000 "
b110010 !
0H
1F
0E
0D
0C
0B
1?
0<
1,
04
0;
0:
17
0$
0+
0*
1'
#770000
b10100 "
b110110 !
b110100 !
b11100 "
b11101 "
b10011101 "
b1110100 !
b10011111 "
0J
1I
1E
1C
1B
1A
1@
1<
0,
1:
19
1;
18
14
1*
1)
1+
1(
1$
#780000
b1110101 !
b1010101 !
b1011101 !
b1011111 !
b10011110 "
b10011100 "
0C
0B
1K
1J
1H
0F
1,
0;
0:
0+
0*
#790000
b10111100 "
b11111100 "
b11011111 !
b1111100 "
b11111111 !
b11111101 !
b1111101 "
0J
1F
1D
1C
1>
1=
0<
0,
16
04
1;
15
1&
0$
1+
1%
#800000
b11101101 !
b1111001 "
b11101001 !
b1110001 "
b10101001 !
b10100001 !
b1110011 "
b110011 "
b100001 !
b100011 !
1B
0A
0@
0=
1J
0I
0H
0G
0E
0D
1,
1:
09
08
05
1*
0)
0(
0%
#810000
b100011 "
b11 "
b10 "
b110011 !
b110 "
b110111 !
b1110111 !
b1111111 !
b100 "
b1111101 !
0J
1I
1H
1G
1E
0C
0B
1A
0?
0>
0,
0:
19
07
0;
06
0*
1)
0'
0+
0&
#820000
b10000100 "
b1011101 !
b11011101 !
b10100100 "
b10100101 "
b11001101 !
b11001001 !
b11000001 !
b11000011 !
1J
0I
0H
0G
0F
1D
1C
1>
1<
1,
16
14
1;
1&
1$
1+
#830000
b11000010 !
b10101101 "
b11101101 "
b11101001 "
b11101011 "
b11001011 "
b11001010 "
b11010010 !
b11010110 !
b11011110 !
b11011100 !
0C
1B
0A
1@
0>
1=
0K
0J
1I
1H
1G
0,
0;
1:
09
18
06
15
0+
1*
0)
1(
0&
1%
#840000
b1001010 "
b11111100 !
b11111101 !
b11101101 !
b11101001 !
b11101011 !
1K
1J
0I
0G
1F
0<
1,
04
0$
#850000
b1011010 "
b10101011 !
b1011000 "
b10101010 !
b10111010 !
b10111110 !
b10111100 !
0K
0J
1I
1G
0E
0B
1?
0,
0:
17
0*
1'
#860000
b1010000 "
b1110000 "
b11110000 "
b10011100 !
b11110010 "
b10001100 !
b10001000 !
0I
0G
0F
1B
0@
1>
1<
1,
16
1:
08
14
1&
1*
0(
1$
#870000
b1000 !
b10110010 "
b0 !
b1 !
b10111010 "
b10111000 "
0B
1@
0=
1K
0H
0D
0,
0:
18
05
0*
1(
0%
#880000
b10111001 "
b10101001 "
b1000001 !
b10001001 "
b1001 "
b1000101 !
b1001101 !
b1001100 !
0K
1I
1H
1E
1C
0?
0>
0<
1,
1;
07
06
04
1+
0'
0&
0$
#890000
b1101 "
b1101100 !
b1111100 !
b11111100 !
b1100 "
b11100 "
b10111100 !
b111100 "
b10110100 !
b10110101 !
1K
0H
1G
1F
0E
1D
0C
1A
1?
1>
0,
0;
17
16
19
0+
1'
1&
1)
#900000
b1111100 "
b11111100 "
b110101 !
b11101100 "
b11001100 "
b111101 !
1H
0D
0?
0>
1=
1<
1,
14
07
06
15
1$
0'
0&
1%
#910000
b111111 !
b11001000 "
b11001001 "
b1111111 !
b1111110 !
b10001001 "
b10101001 "
b1110110 !
1C
0A
1>
0=
0K
1J
0H
1E
0,
1;
09
16
05
1+
0)
1&
0%
#920000
b10101011 "
b1010110 !
b101011 "
b111011 "
b1010100 !
b111111 "
b111110 "
b10100 !
b1111110 "
b1011110 "
0J
0F
0E
0C
1B
1A
1?
0>
1=
0<
1,
1:
06
15
0;
19
17
04
1*
0&
1%
0+
1)
1'
0$
#930000
b10010100 !
b10010101 !
b10011101 !
b10111101 !
b1001110 "
b1001010 "
b11111101 !
b1010 "
0A
0?
0=
1K
1H
1F
1E
1D
0,
09
07
05
0)
0'
0%
#940000
b11111001 !
b11101001 !
b1000 "
b10001000 "
b11101011 !
b11101010 !
b11100010 !
b10011000 "
b10011100 "
b10100010 !
b11011100 "
0B
1A
1?
1=
1<
0K
1J
0I
0H
0G
0E
1,
0:
19
17
15
14
0*
1)
1'
1%
1$
#950000
b11011101 "
b10100110 !
b10110110 !
b11011111 "
b1011111 "
b10110111 !
b1001111 "
b1111 "
1K
1I
1G
1C
1B
0?
0=
0<
0,
1;
07
1:
05
04
1+
0'
1*
0%
0$
#960000
b111 "
b10010111 !
b10011111 !
b11 "
b10 "
b10011011 !
b10001011 !
b10000010 "
b11000010 "
0I
1H
0G
0F
0C
0A
0@
1=
1<
1,
09
08
0;
15
14
0)
0(
0+
1%
1$
#970000
b11001011 !
b11000000 "
b1000000 "
0B
0<
1E
0,
0:
04
0*
0$
#980000
b1001000 "
b11101011 !
b11100011 !
b1001001 "
b1001 "
b10100011 !
b1011 "
0H
1F
0E
1C
1B
1@
0=
1,
18
05
1;
1:
1(
0%
1+
1*
#990000
b101011 "
b100011 !
b111011 "
b111111 "
b100111 !
b10111111 "
b10110111 "
b101111 !
b10110110 "
b1101111 !
1I
1H
1E
0D
0C
1A
0@
1?
1>
1<
0,
19
08
14
0;
17
16
1)
0(
1$
0+
1'
1&
